803946 939252 525
692011 681158 442
639873 548966 509
492835 623443 470
112691 769553 509
733884 758877 424
47926 6923 324
931297 84218 525
786504 759141 468
492406 660666 509
627145 929916 525
962641 205217 525
241954 377418 441
255284 162943 443
377366 908540 525
956028 613077 525
23916 561007 470
857247 437129 525
538840 96658 470
648138 125653 509
482140 648752 509
368156 530770 470
924791 485597 525
496590 239310 449
445506 647336 509
831277 489196 509
253224 934807 525
20198 419342 449
270454 568751 470
543433 949653 525
718899 131014 509
985448 939317 507
504324 208324 449
609679 664426 509
664788 302654 509
335209 289976 384
33344 539965 470
533276 530841 377
476445 251434 449
737455 819902 468
383236 5465 443
428583 676447 509
150753 916272 525
884335 384972 525
888375 775214 525
708860 465011 509
725373 710780 411
975371 70752 525
172782 200913 365
514228 738884 509
531527 744048 509
266523 867212 525
792681 438313 509
795289 703726 504
297739 142347 443
383976 341033 441
336338 142643 443
861125 217813 525
22082 185712 383
816064 198892 509
656161 43051 509
993243 755905 525
309397 881434 525
955856 271500 525
193422 322173 443
556514 116651 470
543824 161882 470
264463 763376 509
812785 412571 509
922149 45362 525
404456 223325 443
177826 605672 470
355292 10887 443
935802 342278 525
519721 321432 470
331492 170379 443
738712 391048 509
328065 703876 509
784655 880208 525
247118 955320 525
362057 230139 443
646662 132006 509
980781 131068 525
459769 37816 449
205445 841817 525
334299 518491 470
166581 99676 383
923765 565689 525
631893 94658 509
134003 645379 509
2212 652285 509
608009 391453 470
346690 513341 470
113333 217183 386
88793 155547 375
441231 873043 525
138017 551648 470
772372 994779 525
529919 161802 470
914588 411508 525
977171 28702 525
833662 581861 509
934458 846603 476
998556 733570 525
191973 960620 525
446716 802629 509
913100 421726 525
381428 851492 525
672984 213839 509
705391 572143 509
530697 107388 470
19465 372534 443
824867 673512 504
929086 41664 525
156247 82391 383
229424 717468 509
587238 987601 525
448797 430674 400
87765 697433 509
579561 885469 525
248621 431503 449
184593 557912 470
774344 463778 509
634943 63151 509
890344 24417 525
504430 10394 449
16740 712742 509
731954 920046 525
563342 890306 525
606883 845268 525
244722 790294 509
25605 681109 509
163484 634738 509
429163 83365 449
489438 754078 509
377105 972234 525
526638 325490 470
382596 478295 449
103074 625982 470
303966 526448 470
335772 495176 449
60435 690725 509
703540 1855 509
576303 594246 434
984469 568847 525
332597 937535 525
966231 310028 525
954671 297043 525
293968 10348 443
798339 317984 509
450139 930674 525
907258 89132 525
196205 602034 470
480024 141858 449
689933 163808 509
220611 507736 449
685671 433739 509
274720 341155 389
828471 447542 509
293499 701722 509
340590 50577 443
41597 404181 443
978425 696316 525
668800 952805 525
576420 662027 509
619517 199964 470
54730 218585 386
112844 169626 383
906396 320915 525
824336 803639 450
232951 693434 509
321114 644468 509
125400 43924 354
594379 462928 470
408209 595281 470
236545 360978 441
12187 573804 470
813770 381928 509
568449 173839 470
830600 551226 509
811024 648325 504
698535 941191 525
955789 765671 525
403684 367518 436
724921 908282 525
841509 943885 507
775546 745036 468
220453 475207 449
665503 365163 509
708034 846902 525
335417 374073 441
785021 904301 525
497737 602102 470
402828 842299 525
761680 560580 509
963124 245309 525
244639 97781 443
405144 495862 449
101940 67491 351
564733 33665 470
531033 962913 525
669366 129801 509
292642 819644 509
290210 501914 449
564754 239619 470
976642 202115 525
785389 638881 504
151101 120404 375
777497 68658 509
438125 475442 444
966987 221352 525
744274 142775 509
829771 654109 504
104165 721686 509
855987 322151 525
288942 197267 443
54663 323401 443
83209 244831 443
689751 462411 509
74584 158744 383
220535 859714 525
142028 840803 525
911259 439837 525
922412 781156 525
18822 901724 525
77275 646061 509
761175 546791 509
218857 947720 525
153293 705334 509
323536 219240 443
303174 682366 509
948759 52165 525
556826 685822 509
139032 565379 470
961932 76517 525
335041 713923 509
903054 204537 525
899779 425283 525
501637 467724 426
975354 969146 458
689321 772201 504
79974 970821 525
969659 765151 525
766059 273400 509
148327 106639 375
51467 926910 525
26644 387970 443
837233 75369 509
782599 97154 509
562185 597730 434
