602507 764883 509
514303 809251 509
716825 344438 509
752728 436537 509
406416 417189 449
224681 201171 386
311727 270385 389
908330 868535 445
917978 276846 525
916847 212845 525
510558 971095 525
999678 24214 525
935189 469485 525
990880 641826 525
953781 796458 525
653672 556140 509
160113 939829 525
240532 589435 470
702763 727089 504
225705 714547 509
465788 215058 449
515239 308252 470
936579 779868 525
390074 56339 443
37304 313931 443
673636 933822 525
491929 143299 449
371656 883811 525
222501 184502 386
612088 676955 509
749716 448027 509
415178 566551 470
19840 664162 509
295641 970679 525
212121 373133 443
53223 683193 509
484922 312803 449
997693 208719 525
897671 847544 445
671437 157955 509
113876 805628 509
140242 871829 525
707865 822380 468
128700 233944 443
394455 478910 449
388579 981524 525
251461 595051 470
982905 149302 525
808141 725619 468
104573 936140 525
504364 560495 470
238714 428171 449
637950 475817 509
690341 336896 509
89368 283252 443
385857 62373 443
856424 248154 525
558722 82032 470
66844 499622 449
403543 396348 387
931388 960276 507
730830 397827 509
746779 597344 509
280437 662911 509
103145 902959 525
470016 806689 509
624630 710316 509
798880 505719 509
94488 221761 386
467661 200995 449
162328 245045 443
596911 484985 470
956915 836712 525
95477 135068 354
3313 825169 509
73417 672289 509
178995 581364 470
877059 910091 445
278805 902509 525
678984 796445 504
607522 91601 470
273245 598995 470
315422 949942 525
273624 487581 449
443667 638801 509
860151 888851 445
872580 738107 525
40230 810974 509
933423 622485 525
455848 834251 509
373511 953435 525
597764 330157 470
123564 326228 443
459583 82042 449
518333 576214 452
581788 835643 509
91575 541115 470
865139 625401 525
994750 602359 525
119663 204733 383
132081 163906 383
129770 934310 525
734932 980441 525
217635 311738 443
411090 461756 444
970124 440830 525
861885 805414 525
397361 672090 509
284858 736866 509
568463 153186 470
198433 39667 383
660142 479315 509
675334 488015 509
220530 428809 449
65683 188074 383
466488 341840 449
506900 380999 449
359826 982360 525
268242 99475 443
558341 445205 470
892520 972267 507
188458 596612 470
881383 117859 525
829405 313912 509
882401 62026 525
949672 87936 525
874554 471447 525
306850 231943 407
795091 51707 509
968583 885757 507
262488 70884 443
421249 209467 449
955504 688192 525
156957 215686 373
809752 451072 509
759885 278271 509
602993 34062 470
717286 149194 509
820602 402089 509
892851 982195 507
144602 633602 509
630366 775954 504
287615 110236 443
531112 965565 525
591431 685436 509
408032 331909 441
578175 967787 525
1059 289820 443
208704 172956 373
47652 541038 470
517573 311542 470
493610 195002 449
724591 906050 525
77068 701670 509
483144 754070 509
899863 369643 525
264968 419230 449
202875 463380 449
688735 717753 504
140302 217823 386
550574 495754 470
471957 928904 525
468661 250192 449
923348 654509 525
97132 901147 525
231900 392699 441
160464 191662 365
686580 238025 509
570691 555321 421
728115 143380 509
490047 679466 509
297574 564987 470
739337 155313 509
762191 396871 509
508357 915513 525
647758 190685 509
959602 545145 525
69328 943954 525
237510 360057 441
531149 150453 470
336848 123403 443
439779 721565 509
662781 853221 525
878177 876258 401
848099 990973 507
107285 470536 449
744882 163521 509
598921 791001 509
466394 271298 449
150938 985556 525
764442 683020 504
936734 637877 525
95179 174908 383
262442 456455 449
237457 534488 470
781386 219841 509
148162 77279 375
203288 273788 443
402769 846794 525
20530 212760 383
745958 91924 509
996012 695983 525
230761 713700 509
363671 554230 470
872777 219009 525
610482 350601 470
714061 8619 509
453466 718206 509
984701 999403 440
71697 123828 354
477645 217258 449
959291 846418 507
591472 813429 509
289613 848438 525
558522 354959 470
319579 911562 525
50341 237568 443
673513 188158 509
174115 274979 443
252461 153205 443
37291 547643 470
946692 303211 525
644513 769782 504
919997 623382 525
861777 780969 525
403948 350024 436
941244 493028 525
220594 176209 386
156405 95157 383
776343 923980 525
833671 839679 525
830616 858410 525
264142 626024 470
74521 916621 525
121656 193019 383
333585 267061 407
474346 718768 509
317207 658770 509
115795 479254 449
505444 913121 525
485196 650865 509
658345 230153 509
734844 168547 509
556632 577992 421
955289 86015 525
127030 195801 383
638098 553872 509
1028 733631 509
90526 82326 333
632708 174211 509
1 10 20
100 200 125
201 210 89
900 1000 174
