502277 907213 525
664411 53828 509
862613 708252 525
874418 992150 507
40089 422430 449
883162 82500 525
13303 666501 509
543753 990839 525
721970 885876 525
631781 782018 504
370186 369525 392
879659 606496 525
808543 82145 509
857472 949015 507
483248 956932 525
737040 367345 509
909742 94940 525
348362 652730 509
164430 667252 509
554710 67987 470
29306 587874 470
595022 959597 525
175576 812111 509
122634 638608 509
852636 528651 525
427973 574871 470
945142 929270 507
731261 317407 509
650611 955735 525
313700 407547 441
43500 546034 470
844156 643773 525
97329 323293 443
421907 180871 449
922512 304064 525
683117 96521 509
504344 402577 449
181003 215761 373
803327 341429 509
362613 817248 509
25697 601618 470
548533 447878 470
114530 761922 509
212089 999109 525
771797 168988 509
93274 312073 443
939990 609096 525
417669 620708 470
412359 746950 509
257305 731166 509
995992 540878 525
854755 989912 507
37170 117767 354
553595 86459 470
402901 503546 449
551634 120363 470
18943 471331 449
976535 700383 525
619447 171967 470
377570 196261 443
449020 382475 449
400053 512445 470
838062 789965 525
494133 351695 449
285539 528230 470
422996 907340 525
460013 271172 449
531623 16196 470
655327 972873 525
337059 682003 509
125412 232904 443
651081 270834 509
828059 287826 509
426430 641750 509
520754 172234 470
490564 713529 509
300501 767256 509
960395 900675 507
191893 984450 525
658827 311451 509
144818 452331 449
988356 49987 525
531390 274573 470
189710 697021 509
780341 851015 525
239684 917170 525
884870 672019 525
368148 889061 525
918291 771062 525
208909 888251 525
354132 752209 509
534860 784248 509
726742 260181 509
970331 969244 321
714766 949744 525
365193 220575 443
835095 839897 525
625008 714788 509
750722 11955 509
273711 680516 509
331944 630172 509
4417 469493 449
979496 949645 458
949991 516359 525
1578 121199 354
529965 425571 470
353001 895254 525
908255 178349 525
862566 238694 525
892878 649655 525
404816 782548 509
722892 158218 509
371670 5512 443
67856 927493 525
329683 958628 525
96208 893433 525
683605 626872 442
115251 640779 509
714574 463309 509
827295 96878 509
542135 62195 470
315055 23717 443
753680 216723 509
657159 375986 509
314584 411368 449
937927 529775 525
455603 473523 444
326766 980791 525
579894 346695 470
234741 14187 443
688732 180124 509
428539 90362 449
327602 799266 509
689767 8428 509
116502 976515 525
981427 299219 525
970464 347684 525
602831 32853 470
827696 154242 509
210976 601763 470
457408 827445 509
774117 294176 509
815054 172981 509
353526 171618 443
42172 484860 449
730954 146570 509
503521 24350 449
690056 327495 509
49531 388238 443
632361 396190 509
478009 442761 444
988080 773931 525
937469 800500 525
955626 194003 525
537127 172255 470
635367 277468 509
673984 766181 504
429214 850891 525
125831 307187 443
43525 312137 443
329179 289113 384
900552 419757 525
806220 81361 509
844712 584557 525
505867 382306 449
885339 338268 525
953181 869124 507
471289 258593 449
209082 492863 449
858682 237536 525
181393 7253 383
410673 882411 525
204500 664015 509
941098 722421 525
566183 553879 421
216765 904075 525
651379 403414 509
75278 597583 470
862459 512283 525
451697 684280 509
786492 933140 525
266360 934412 525
969049 241249 525
409732 627650 509
487568 661391 509
485959 709113 509
887122 755634 525
427244 123567 449
436723 663212 509
748726 369767 509
291836 892230 525
791688 640341 504
177129 513284 470
281613 63511 443
255866 996755 525
359962 774774 509
867453 845838 419
459462 181506 449
614459 960515 525
312100 800005 509
170063 562006 470
179949 739944 509
533759 582904 452
40162 42699 288
906079 20024 525
584544 417028 470
600180 447840 470
920200 278415 525
79624 193595 383
574357 584334 434
834373 707463 468
884980 724014 525
79924 997046 525
911478 706422 525
373965 696753 509
491897 939639 525
869197 789302 525
736548 274637 509
579170 112121 470
928899 549086 525
616288 58734 470
715882 624952 509
16800 544670 470
915237 903204 476
448490 767409 509
449305 790927 509
638901 521626 509
942626 410912 525
11930 51385 324
633697 634673 323
548656 340545 470
200003 988861 525
304843 708201 509
979969 568535 525
144301 315891 443
169652 98461 383
144203 443979 449
487999 524114 470
942056 173781 525
350094 367428 410
918741 811444 525
207318 447420 449
39593 882010 525
138918 580930 470
230200 520648 470
520165 79124 470
887180 250477 525
28095 218691 386
84558 258892 443
647868 990399 525
